{"page":1,"per_page":15,"photos":[{"id":45201,"width":2392,"height":2500,"url":"https://www.pexels.com/photo/white-and-grey-kitten-on-brown-and-black-leopard-print-textile-45201/","photographer":"Pixabay","photographer_url":"https://www.pexels.com/@pixabay","photographer_id":2659,"avg_color":"#4E4340","src":{"original":"https://images.pexels.com/photos/45201/kitty-cat-kitten-pet-45201.jpeg","large2x":"https://images.pexels.com/photos/45201/kitty-cat-kitten-pet-45201.jpeg?auto=compress\u0026cs=tinysrgb\u0026dpr=2\u0026h=650\u0026w=940","large":"https://images.pexels.com/photos/45201/kitty-cat-kitten-pet-45201.jpeg?auto=compress\u0026cs=tinysrgb\u0026h=650\u0026w=940","medium":"https://images.pexels.com/photos/45201/kitty-cat-kitten-pet-45201.jpeg?auto=compress\u0026cs=tinysrgb\u0026h=350","small":"https://images.pexels.com/photos/45201/kitty-cat-kitten-pet-45201.jpeg?auto=compress\u0026cs=tinysrgb\u0026h=130","portrait":"https://images.pexels.com/photos/45201/kitty-cat-kitten-pet-45201.jpeg?auto=compress\u0026cs=tinysrgb\u0026fit=crop\u0026h=1200\u0026w=800","landscape":"https://images.pexels.com/photos/45201/kitty-cat-kitten-pet-45201.jpeg?auto=compress\u0026cs=tinysrgb\u0026fit=crop\u0026h=627\u0026w=1200","tiny":"https://images.pexels.com/photos/45201/kitty-cat-kitten-pet-45201.jpeg?auto=compress\u0026cs=tinysrgb\u0026dpr=1\u0026fit=crop\u0026h=200\u0026w=280"},"liked":false,"alt":"White and Grey Kitten on Brown and Black Leopard Print Textile"},{"id":617278,"width":4928,"height":3264,"url":"https://www.pexels.com/photo/brown-cat-with-green-eyes-617278/","photographer":"Kelvin Valerio","photographer_url":"https://www.pexels.com/@kelvin809","photographer_id":135974,"avg_color":"#20201C","src":{"original":"https://images.pexels.com/photos/617278/pexels-photo-617278.jpeg","large2x":"https://images.pexels.com/photos/617278/pexels-photo-617278.jpeg?auto=compress\u0026cs=tinysrgb\u0026dpr=2\u0026h=650\u0026w=940","large":"https://images.pexels.com/photos/617278/pexels-photo-617278.jpeg?auto=compress\u0026cs=tinysrgb\u0026h=650\u0026w=940","medium":"https://images.pexels.com/photos/617278/pexels-photo-617278.jpeg?auto=compress\u0026cs=tinysrgb\u0026h=350","small":"https://images.pexels.com/photos/617278/pexels-photo-617278.jpeg?auto=compress\u0026cs=tinysrgb\u0026h=130","portrait":"https://images.pexels.com/photos/617278/pexels-photo-617278.jpeg?auto=compress\u0026cs=tinysrgb\u0026fit=crop\u0026h=1200\u0026w=800","landscape":"https://images.pexels.com/photos/617278/pexels-photo-617278.jpeg?auto=compress\u0026cs=tinysrgb\u0026fit=crop\u0026h=627\u0026w=1200","tiny":"https://images.pexels.com/photos/617278/pexels-photo-617278.jpeg?auto=compress\u0026cs=tinysrgb\u0026dpr=1\u0026fit=crop\u0026h=200\u0026w=280"},"liked":false,"alt":"Brown Cat With Green Eyes"},{"id":104827,"width":5360,"height":3560,"url":"https://www.pexels.com/photo/grey-and-white-short-fur-cat-104827/","photographer":"Pixabay","photographer_url":"https://www.pexels.com/@pixabay","photographer_id":2659,"avg_color":"#D2D0D1","src":{"original":"https://images.pexels.com/photos/104827/cat-pet-animal-domestic-104827.jpeg","large2x":"https://images.pexels.com/photos/104827/cat-pet-animal-domestic-104827.jpeg?auto=compress\u0026cs=tinysrgb\u0026dpr=2\u0026h=650\u0026w=940","large":"https://images.pexels.com/photos/104827/cat-pet-animal-domestic-104827.jpeg?auto=compress\u0026cs=tinysrgb\u0026h=650\u0026w=940","medium":"https://images.pexels.com/photos/104827/cat-pet-animal-domestic-104827.jpeg?auto=compress\u0026cs=tinysrgb\u0026h=350","small":"https://images.pexels.com/photos/104827/cat-pet-animal-domestic-104827.jpeg?auto=compress\u0026cs=tinysrgb\u0026h=130","portrait":"https://images.pexels.com/photos/104827/cat-pet-animal-domestic-104827.jpeg?auto=compress\u0026cs=tinysrgb\u0026fit=crop\u0026h=1200\u0026w=800","landscape":"https://images.pexels.com/photos/104827/cat-pet-animal-domestic-104827.jpeg?auto=compress\u0026cs=tinysrgb\u0026fit=crop\u0026h=627\u0026w=1200","tiny":"https://images.pexels.com/photos/104827/cat-pet-animal-domestic-104827.jpeg?auto=compress\u0026cs=tinysrgb\u0026dpr=1\u0026fit=crop\u0026h=200\u0026w=280"},"liked":false,"alt":"Grey and White Short Fur Cat"},{"id":416160,"width":3888,"height":2592,"url":"https://www.pexels.com/photo/kitten-lying-on-surface-416160/","photographer":"Pixabay","photographer_url":"https://www.pexels.com/@pixabay","photographer_id":2659,"avg_color":"#AB9488","src":{"original":"https://images.pexels.com/photos/416160/pexels-photo-416160.jpeg","large2x":"https://images.pexels.com/photos/416160/pexels-photo-416160.jpeg?auto=compress\u0026cs=tinysrgb\u0026dpr=2\u0026h=650\u0026w=940","large":"https://images.pexels.com/photos/416160/pexels-photo-416160.jpeg?auto=compress\u0026cs=tinysrgb\u0026h=650\u0026w=940","medium":"https://images.pexels.com/photos/416160/pexels-photo-416160.jpeg?auto=compress\u0026cs=tinysrgb\u0026h=350","small":"https://images.pexels.com/photos/416160/pexels-photo-416160.jpeg?auto=compress\u0026cs=tinysrgb\u0026h=130","portrait":"https://images.pexels.com/photos/416160/pexels-photo-416160.jpeg?auto=compress\u0026cs=tinysrgb\u0026fit=crop\u0026h=1200\u0026w=800","landscape":"https://images.pexels.com/photos/416160/pexels-photo-416160.jpeg?auto=compress\u0026cs=tinysrgb\u0026fit=crop\u0026h=627\u0026w=1200","tiny":"https://images.pexels.com/photos/416160/pexels-photo-416160.jpeg?auto=compress\u0026cs=tinysrgb\u0026dpr=1\u0026fit=crop\u0026h=200\u0026w=280"},"liked":false,"alt":"Kitten Lying on Surface"},{"id":320014,"width":1239,"height":1800,"url":"https://www.pexels.com/photo/close-up-of-cat-320014/","photographer":"Henda Watani","photographer_url":"https://www.pexels.com/@wonda-stella","photographer_id":102277,"avg_color":"#3A3940","src":{"original":"https://images.pexels.com/photos/320014/pexels-photo-320014.jpeg","large2x":"https://images.pexels.com/photos/320014/pexels-photo-320014.jpeg?auto=compress\u0026cs=tinysrgb\u0026dpr=2\u0026h=650\u0026w=940","large":"https://images.pexels.com/photos/320014/pexels-photo-320014.jpeg?auto=compress\u0026cs=tinysrgb\u0026h=650\u0026w=940","medium":"https://images.pexels.com/photos/320014/pexels-photo-320014.jpeg?auto=compress\u0026cs=tinysrgb\u0026h=350","small":"https://images.pexels.com/photos/320014/pexels-photo-320014.jpeg?auto=compress\u0026cs=tinysrgb\u0026h=130","portrait":"https://images.pexels.com/photos/320014/pexels-photo-320014.jpeg?auto=compress\u0026cs=tinysrgb\u0026fit=crop\u0026h=1200\u0026w=800","landscape":"https://images.pexels.com/photos/320014/pexels-photo-320014.jpeg?auto=compress\u0026cs=tinysrgb\u0026fit=crop\u0026h=627\u0026w=1200","tiny":"https://images.pexels.com/photos/320014/pexels-photo-320014.jpeg?auto=compress\u0026cs=tinysrgb\u0026dpr=1\u0026fit=crop\u0026h=200\u0026w=280"},"liked":false,"alt":"Close-up of Cat"},{"id":1170986,"width":1771,"height":2657,"url":"https://www.pexels.com/photo/selective-focus-photography-of-orange-tabby-cat-1170986/","photographer":"EVG Kowalievska","photographer_url":"https://www.pexels.com/@evgphotos","photographer_id":391109,"avg_color":"#BEAE9E","src":{"original":"https://images.pexels.com/photos/1170986/pexels-photo-1170986.jpeg","large2x":"https://images.pexels.com/photos/1170986/pexels-photo-1170986.jpeg?auto=compress\u0026cs=tinysrgb\u0026dpr=2\u0026h=650\u0026w=940","large":"https://images.pexels.com/photos/1170986/pexels-photo-1170986.jpeg?auto=compress\u0026cs=tinysrgb\u0026h=650\u0026w=940","medium":"https://images.pexels.com/photos/1170986/pexels-photo-1170986.jpeg?auto=compress\u0026cs=tinysrgb\u0026h=350","small":"https://images.pexels.com/photos/1170986/pexels-photo-1170986.jpeg?auto=compress\u0026cs=tinysrgb\u0026h=130","portrait":"https://images.pexels.com/photos/1170986/pexels-photo-1170986.jpeg?auto=compress\u0026cs=tinysrgb\u0026fit=crop\u0026h=1200\u0026w=800","landscape":"https://images.pexels.com/photos/1170986/pexels-photo-1170986.jpeg?auto=compress\u0026cs=tinysrgb\u0026fit=crop\u0026h=627\u0026w=1200","tiny":"https://images.pexels.com/photos/1170986/pexels-photo-1170986.jpeg?auto=compress\u0026cs=tinysrgb\u0026dpr=1\u0026fit=crop\u0026h=200\u0026w=280"},"liked":false,"alt":"Selective Focus Photography of Orange Tabby Cat"},{"id":1741205,"width":3744,"height":5616,"url":"https://www.pexels.com/photo/photo-of-orange-tabby-cat-with-red-handkerchief-1741205/","photographer":"Lina Kivaka","photographer_url":"https://www.pexels.com/@lina","photographer_id":593836,"avg_color":"#9D8E8B","src":{"original":"https://images.pexels.com/photos/1741205/pexels-photo-1741205.jpeg","large2x":"https://images.pexels.com/photos/1741205/pexels-photo-1741205.jpeg?auto=compress\u0026cs=tinysrgb\u0026dpr=2\u0026h=650\u0026w=940","large":"https://images.pexels.com/photos/1741205/pexels-photo-1741205.jpeg?auto=compress\u0026cs=tinysrgb\u0026h=650\u0026w=940","medium":"https://images.pexels.com/photos/1741205/pexels-photo-1741205.jpeg?auto=compress\u0026cs=tinysrgb\u0026h=350","small":"https://images.pexels.com/photos/1741205/pexels-photo-1741205.jpeg?auto=compress\u0026cs=tinysrgb\u0026h=130","portrait":"https://images.pexels.com/photos/1741205/pexels-photo-1741205.jpeg?auto=compress\u0026cs=tinysrgb\u0026fit=crop\u0026h=1200\u0026w=800","landscape":"https://images.pexels.com/photos/1741205/pexels-photo-1741205.jpeg?auto=compress\u0026cs=tinysrgb\u0026fit=crop\u0026h=627\u0026w=1200","tiny":"https://images.pexels.com/photos/1741205/pexels-photo-1741205.jpeg?auto=compress\u0026cs=tinysrgb\u0026dpr=1\u0026fit=crop\u0026h=200\u0026w=280"},"liked":false,"alt":"Photo of Orange Tabby Cat With Red Handkerchief "},{"id":57416,"width":2557,"height":1704,"url":"https://www.pexels.com/photo/close-up-photo-of-yellow-and-white-cat-57416/","photographer":"Pixabay","photographer_url":"https://www.pexels.com/@pixabay","photographer_id":2659,"avg_color":"#9B9A86","src":{"original":"https://images.pexels.com/photos/57416/cat-sweet-kitty-animals-57416.jpeg","large2x":"https://images.pexels.com/photos/57416/cat-sweet-kitty-animals-57416.jpeg?auto=compress\u0026cs=tinysrgb\u0026dpr=2\u0026h=650\u0026w=940","large":"https://images.pexels.com/photos/57416/cat-sweet-kitty-animals-57416.jpeg?auto=compress\u0026cs=tinysrgb\u0026h=650\u0026w=940","medium":"https://images.pexels.com/photos/57416/cat-sweet-kitty-animals-57416.jpeg?auto=compress\u0026cs=tinysrgb\u0026h=350","small":"https://images.pexels.com/photos/57416/cat-sweet-kitty-animals-57416.jpeg?auto=compress\u0026cs=tinysrgb\u0026h=130","portrait":"https://images.pexels.com/photos/57416/cat-sweet-kitty-animals-57416.jpeg?auto=compress\u0026cs=tinysrgb\u0026fit=crop\u0026h=1200\u0026w=800","landscape":"https://images.pexels.com/photos/57416/cat-sweet-kitty-animals-57416.jpeg?auto=compress\u0026cs=tinysrgb\u0026fit=crop\u0026h=627\u0026w=1200","tiny":"https://images.pexels.com/photos/57416/cat-sweet-kitty-animals-57416.jpeg?auto=compress\u0026cs=tinysrgb\u0026dpr=1\u0026fit=crop\u0026h=200\u0026w=280"},"liked":false,"alt":"Close-Up Photo of Yellow and White Cat"},{"id":20787,"width":3456,"height":2304,"url":"https://www.pexels.com/photo/short-coated-gray-cat-20787/","photographer":"Krysten Merriman","photographer_url":"https://www.pexels.com/@kmerriman","photographer_id":2364,"avg_color":"#59524F","src":{"original":"https://images.pexels.com/photos/20787/pexels-photo.jpg","large2x":"https://images.pexels.com/photos/20787/pexels-photo.jpg?auto=compress\u0026cs=tinysrgb\u0026dpr=2\u0026h=650\u0026w=940","large":"https://images.pexels.com/photos/20787/pexels-photo.jpg?auto=compress\u0026cs=tinysrgb\u0026h=650\u0026w=940","medium":"https://images.pexels.com/photos/20787/pexels-photo.jpg?auto=compress\u0026cs=tinysrgb\u0026h=350","small":"https://images.pexels.com/photos/20787/pexels-photo.jpg?auto=compress\u0026cs=tinysrgb\u0026h=130","portrait":"https://images.pexels.com/photos/20787/pexels-photo.jpg?auto=compress\u0026cs=tinysrgb\u0026fit=crop\u0026h=1200\u0026w=800","landscape":"https://images.pexels.com/photos/20787/pexels-photo.jpg?auto=compress\u0026cs=tinysrgb\u0026fit=crop\u0026h=627\u0026w=1200","tiny":"https://images.pexels.com/photos/20787/pexels-photo.jpg?auto=compress\u0026cs=tinysrgb\u0026dpr=1\u0026fit=crop\u0026h=200\u0026w=280"},"liked":false,"alt":"Short-coated Gray Cat"},{"id":2071873,"width":2326,"height":3495,"url":"https://www.pexels.com/photo/orange-tabby-cat-near-window-2071873/","photographer":"Wojciech Kumpicki","photographer_url":"https://www.pexels.com/@wojciech-kumpicki-1084687","photographer_id":1084687,"avg_color":"#95948D","src":{"original":"https://images.pexels.com/photos/2071873/pexels-photo-2071873.jpeg","large2x":"https://images.pexels.com/photos/2071873/pexels-photo-2071873.jpeg?auto=compress\u0026cs=tinysrgb\u0026dpr=2\u0026h=650\u0026w=940","large":"https://images.pexels.com/photos/2071873/pexels-photo-2071873.jpeg?auto=compress\u0026cs=tinysrgb\u0026h=650\u0026w=940","medium":"https://images.pexels.com/photos/2071873/pexels-photo-2071873.jpeg?auto=compress\u0026cs=tinysrgb\u0026h=350","small":"https://images.pexels.com/photos/2071873/pexels-photo-2071873.jpeg?auto=compress\u0026cs=tinysrgb\u0026h=130","portrait":"https://images.pexels.com/photos/2071873/pexels-photo-2071873.jpeg?auto=compress\u0026cs=tinysrgb\u0026fit=crop\u0026h=1200\u0026w=800","landscape":"https://images.pexels.com/photos/2071873/pexels-photo-2071873.jpeg?auto=compress\u0026cs=tinysrgb\u0026fit=crop\u0026h=627\u0026w=1200","tiny":"https://images.pexels.com/photos/2071873/pexels-photo-2071873.jpeg?auto=compress\u0026cs=tinysrgb\u0026dpr=1\u0026fit=crop\u0026h=200\u0026w=280"},"liked":false,"alt":"Orange Tabby Cat Near Window"},{"id":1056251,"width":5184,"height":3456,"url":"https://www.pexels.com/photo/close-up-photography-of-sleeping-tabby-cat-1056251/","photographer":"Ihsan Adityawarman","photographer_url":"https://www.pexels.com/@ihsanaditya","photographer_id":393334,"avg_color":"#908478","src":{"original":"https://images.pexels.com/photos/1056251/pexels-photo-1056251.jpeg","large2x":"https://images.pexels.com/photos/1056251/pexels-photo-1056251.jpeg?auto=compress\u0026cs=tinysrgb\u0026dpr=2\u0026h=650\u0026w=940","large":"https://images.pexels.com/photos/1056251/pexels-photo-1056251.jpeg?auto=compress\u0026cs=tinysrgb\u0026h=650\u0026w=940","medium":"https://images.pexels.com/photos/1056251/pexels-photo-1056251.jpeg?auto=compress\u0026cs=tinysrgb\u0026h=350","small":"https://images.pexels.com/photos/1056251/pexels-photo-1056251.jpeg?auto=compress\u0026cs=tinysrgb\u0026h=130","portrait":"https://images.pexels.com/photos/1056251/pexels-photo-1056251.jpeg?auto=compress\u0026cs=tinysrgb\u0026fit=crop\u0026h=1200\u0026w=800","landscape":"https://images.pexels.com/photos/1056251/pexels-photo-1056251.jpeg?auto=compress\u0026cs=tinysrgb\u0026fit=crop\u0026h=627\u0026w=1200","tiny":"https://images.pexels.com/photos/1056251/pexels-photo-1056251.jpeg?auto=compress\u0026cs=tinysrgb\u0026dpr=1\u0026fit=crop\u0026h=200\u0026w=280"},"liked":false,"alt":"Close-Up Photography of Sleeping Tabby Cat"},{"id":208984,"width":3989,"height":5983,"url":"https://www.pexels.com/photo/short-fur-black-orange-and-gray-cat-208984/","photographer":"Pixabay","photographer_url":"https://www.pexels.com/@pixabay","photographer_id":2659,"avg_color":"#81786D","src":{"original":"https://images.pexels.com/photos/208984/pexels-photo-208984.jpeg","large2x":"https://images.pexels.com/photos/208984/pexels-photo-208984.jpeg?auto=compress\u0026cs=tinysrgb\u0026dpr=2\u0026h=650\u0026w=940","large":"https://images.pexels.com/photos/208984/pexels-photo-208984.jpeg?auto=compress\u0026cs=tinysrgb\u0026h=650\u0026w=940","medium":"https://images.pexels.com/photos/208984/pexels-photo-208984.jpeg?auto=compress\u0026cs=tinysrgb\u0026h=350","small":"https://images.pexels.com/photos/208984/pexels-photo-208984.jpeg?auto=compress\u0026cs=tinysrgb\u0026h=130","portrait":"https://images.pexels.com/photos/208984/pexels-photo-208984.jpeg?auto=compress\u0026cs=tinysrgb\u0026fit=crop\u0026h=1200\u0026w=800","landscape":"https://images.pexels.com/photos/208984/pexels-photo-208984.jpeg?auto=compress\u0026cs=tinysrgb\u0026fit=crop\u0026h=627\u0026w=1200","tiny":"https://images.pexels.com/photos/208984/pexels-photo-208984.jpeg?auto=compress\u0026cs=tinysrgb\u0026dpr=1\u0026fit=crop\u0026h=200\u0026w=280"},"liked":false,"alt":"Short-fur Black, Orange, and Gray Cat"},{"id":209037,"width":5792,"height":3660,"url":"https://www.pexels.com/photo/adorable-animal-animal-world-cat-209037/","photographer":"Pixabay","photographer_url":"https://www.pexels.com/@pixabay","photographer_id":2659,"avg_color":"#9B654A","src":{"original":"https://images.pexels.com/photos/209037/pexels-photo-209037.jpeg","large2x":"https://images.pexels.com/photos/209037/pexels-photo-209037.jpeg?auto=compress\u0026cs=tinysrgb\u0026dpr=2\u0026h=650\u0026w=940","large":"https://images.pexels.com/photos/209037/pexels-photo-209037.jpeg?auto=compress\u0026cs=tinysrgb\u0026h=650\u0026w=940","medium":"https://images.pexels.com/photos/209037/pexels-photo-209037.jpeg?auto=compress\u0026cs=tinysrgb\u0026h=350","small":"https://images.pexels.com/photos/209037/pexels-photo-209037.jpeg?auto=compress\u0026cs=tinysrgb\u0026h=130","portrait":"https://images.pexels.com/photos/209037/pexels-photo-209037.jpeg?auto=compress\u0026cs=tinysrgb\u0026fit=crop\u0026h=1200\u0026w=800","landscape":"https://images.pexels.com/photos/209037/pexels-photo-209037.jpeg?auto=compress\u0026cs=tinysrgb\u0026fit=crop\u0026h=627\u0026w=1200","tiny":"https://images.pexels.com/photos/209037/pexels-photo-209037.jpeg?auto=compress\u0026cs=tinysrgb\u0026dpr=1\u0026fit=crop\u0026h=200\u0026w=280"},"liked":false,"alt":"Orange Tabby Cat on Brown Surface"},{"id":774731,"width":5403,"height":3602,"url":"https://www.pexels.com/photo/grey-kitten-on-floor-774731/","photographer":"Marko Blazevic","photographer_url":"https://www.pexels.com/@kerber","photographer_id":194642,"avg_color":"#624F36","src":{"original":"https://images.pexels.com/photos/774731/pexels-photo-774731.jpeg","large2x":"https://images.pexels.com/photos/774731/pexels-photo-774731.jpeg?auto=compress\u0026cs=tinysrgb\u0026dpr=2\u0026h=650\u0026w=940","large":"https://images.pexels.com/photos/774731/pexels-photo-774731.jpeg?auto=compress\u0026cs=tinysrgb\u0026h=650\u0026w=940","medium":"https://images.pexels.com/photos/774731/pexels-photo-774731.jpeg?auto=compress\u0026cs=tinysrgb\u0026h=350","small":"https://images.pexels.com/photos/774731/pexels-photo-774731.jpeg?auto=compress\u0026cs=tinysrgb\u0026h=130","portrait":"https://images.pexels.com/photos/774731/pexels-photo-774731.jpeg?auto=compress\u0026cs=tinysrgb\u0026fit=crop\u0026h=1200\u0026w=800","landscape":"https://images.pexels.com/photos/774731/pexels-photo-774731.jpeg?auto=compress\u0026cs=tinysrgb\u0026fit=crop\u0026h=627\u0026w=1200","tiny":"https://images.pexels.com/photos/774731/pexels-photo-774731.jpeg?auto=compress\u0026cs=tinysrgb\u0026dpr=1\u0026fit=crop\u0026h=200\u0026w=280"},"liked":false,"alt":"Grey Kitten On Floor"},{"id":69932,"width":2303,"height":3012,"url":"https://www.pexels.com/photo/close-up-photography-of-white-and-black-cat-69932/","photographer":"Pixabay","photographer_url":"https://www.pexels.com/@pixabay","photographer_id":2659,"avg_color":"#877F78","src":{"original":"https://images.pexels.com/photos/69932/tabby-cat-close-up-portrait-69932.jpeg","large2x":"https://images.pexels.com/photos/69932/tabby-cat-close-up-portrait-69932.jpeg?auto=compress\u0026cs=tinysrgb\u0026dpr=2\u0026h=650\u0026w=940","large":"https://images.pexels.com/photos/69932/tabby-cat-close-up-portrait-69932.jpeg?auto=compress\u0026cs=tinysrgb\u0026h=650\u0026w=940","medium":"https://images.pexels.com/photos/69932/tabby-cat-close-up-portrait-69932.jpeg?auto=compress\u0026cs=tinysrgb\u0026h=350","small":"https://images.pexels.com/photos/69932/tabby-cat-close-up-portrait-69932.jpeg?auto=compress\u0026cs=tinysrgb\u0026h=130","portrait":"https://images.pexels.com/photos/69932/tabby-cat-close-up-portrait-69932.jpeg?auto=compress\u0026cs=tinysrgb\u0026fit=crop\u0026h=1200\u0026w=800","landscape":"https://images.pexels.com/photos/69932/tabby-cat-close-up-portrait-69932.jpeg?auto=compress\u0026cs=tinysrgb\u0026fit=crop\u0026h=627\u0026w=1200","tiny":"https://images.pexels.com/photos/69932/tabby-cat-close-up-portrait-69932.jpeg?auto=compress\u0026cs=tinysrgb\u0026dpr=1\u0026fit=crop\u0026h=200\u0026w=280"},"liked":false,"alt":"Close Up Photography of White and Black Cat"}],"total_results":8000,"next_page":"https://api.pexels.com/v1/search/?page=2\u0026per_page=15\u0026query=cat"}